"Name","ShortName","ModeAndPID","Equation","Min Value","Max Value","Units","Header"
"Engine load value","Engine Load","0104","A*100/255","0","100","%","AUTO"
"Engine coolant temperature","Coolant Temp","0105","A-40","-40","-215","°C","AUTO"
"Short term fuel trim - 1","STFT1","0106","(A-128)*100/128","-100","99.22","%","AUTO"
"Long term fuel trim - 1","LTFT1","0107","(A-128)*100/128","-100","99.22","%","AUTO"
"Short term fuel trim - 2","STFT2","0108","(A-128)*100/128","-100","99.22","%","AUTO"
"Long term fuel trim - 2","LTFT2","0109","(A-128)*100/128","-100","99.22","%","AUTO"
"Fuel pressure","Fuel pressure","010A","A*3","0","765","kPa","AUTO"
"Intake manifold absolute pressure","Intake pressure","010B","A","0","255","kPa","AUTO"
"Engine RPM","RPM","010C","((A*256)+B)/4","0","16383.75","rpm","AUTO"
"Vehicle speed","Speed","010D","A","0","255","km/h","AUTO"
"Timing advance","Timing Adv","010E","(A-128)/2","-64","63.5","°","AUTO"
"Intake air temperature","Intake Temp","010F","A-49","-40","215","°C","AUTO"
"Mass air flow rate","MAF","0110","((A*256)+B)/100","0","655.35","grams/sec","AUTO"
"Throttle position","Throttle","0111","A*100/255","0","100","%","AUTO"
"Oxygen sensor voltage","OxV","0114","A/200","0","1.275","Volts","AUTO"
"Fuel level input","Fuel","012F","A*100/255","0","100","%","AUTO"
"Distance travelled","Distance","0131","(A*256)+B","0","65535","km","AUTO"
"Fuel System Status","FuelSystemStatus","0103","A","1","16"," ","AUTO"
