"Name","SPN","PGN","ByteOffset","BitOffset","BitLength","ValueOffset","Resolution","MinValue","MaxValue","Unit","OBD_Pid"
"TacoGraph Vehicle Speed",1624,65132,6,0,16,0,0.00390625,0,250.99,"kmph",13
"Engine Speed (RPM)",190,61444,3,0,16,0,0.125,0,8031.875,"rpm",12
"Engine Coolant Temperature",110,65262,0,0,8,-40,1,-40,210,"C",5
"Fuel Level",96,65276,1,0,8,0,0.4,0,100,"%",47
"Engine Oil Pressure",100,65263,3,0,8,0,4,0,1000,"kPa",-1
"Hi-res Engine Trip Fuel",5053,64777,0,0,32,0,0.001,0,4211081.215,"ltr",-1
"Engine Average Fuel Economy",185,65266,4,0,16,0,0.001953125,0,125.5,"kmpl",-1
"Total Vehicle Distance",917,65217,0,0,32,0,5,0,4294967291,"m",-1